%YAML 1.1
%TAG !u! tag:unity3d.com,2011:
--- !u!1 &6727568466276642619
GameObject:
  m_ObjectHideFlags: 0
  m_CorrespondingSourceObject: {fileID: 0}
  m_PrefabInstance: {fileID: 0}
  m_PrefabAsset: {fileID: 0}
  serializedVersion: 6
  m_Component:
  - component: {fileID: 6727568466276642565}
  - component: {fileID: 6727568466276642618}
  - component: {fileID: 6727568466276642566}
  - component: {fileID: 6727568466276642567}
  - component: {fileID: 7582039502164398789}
  m_Layer: 0
  m_Name: Nave_Enemiga_2
  m_TagString: "Da\xF1o_Trigger"
  m_Icon: {fileID: 0}
  m_NavMeshLayer: 0
  m_StaticEditorFlags: 0
  m_IsActive: 1
--- !u!4 &6727568466276642565
Transform:
  m_ObjectHideFlags: 0
  m_CorrespondingSourceObject: {fileID: 0}
  m_PrefabInstance: {fileID: 0}
  m_PrefabAsset: {fileID: 0}
  m_GameObject: {fileID: 6727568466276642619}
  m_LocalRotation: {x: 0, y: 0, z: 0, w: 1}
  m_LocalPosition: {x: 0.0437, y: 2.7692, z: 0}
  m_LocalScale: {x: 0.93813646, y: 0.93813646, z: 0.93813646}
  m_Children: []
  m_Father: {fileID: 0}
  m_RootOrder: 0
  m_LocalEulerAnglesHint: {x: 0, y: 0, z: 0}
--- !u!212 &6727568466276642618
SpriteRenderer:
  m_ObjectHideFlags: 0
  m_CorrespondingSourceObject: {fileID: 0}
  m_PrefabInstance: {fileID: 0}
  m_PrefabAsset: {fileID: 0}
  m_GameObject: {fileID: 6727568466276642619}
  m_Enabled: 1
  m_CastShadows: 0
  m_ReceiveShadows: 0
  m_DynamicOccludee: 1
  m_MotionVectors: 1
  m_LightProbeUsage: 1
  m_ReflectionProbeUsage: 1
  m_RayTracingMode: 0
  m_RayTraceProcedural: 0
  m_RenderingLayerMask: 1
  m_RendererPriority: 0
  m_Materials:
  - {fileID: 10754, guid: 0000000000000000f000000000000000, type: 0}
  m_StaticBatchInfo:
    firstSubMesh: 0
    subMeshCount: 0
  m_StaticBatchRoot: {fileID: 0}
  m_ProbeAnchor: {fileID: 0}
  m_LightProbeVolumeOverride: {fileID: 0}
  m_ScaleInLightmap: 1
  m_ReceiveGI: 1
  m_PreserveUVs: 0
  m_IgnoreNormalsForChartDetection: 0
  m_ImportantGI: 0
  m_StitchLightmapSeams: 1
  m_SelectedEditorRenderState: 0
  m_MinimumChartSize: 4
  m_AutoUVMaxDistance: 0.5
  m_AutoUVMaxAngle: 89
  m_LightmapParameters: {fileID: 0}
  m_SortingLayerID: 0
  m_SortingLayer: 0
  m_SortingOrder: 0
  m_Sprite: {fileID: -7211625423188279565, guid: c648cc7be4aa688438ddd8b40c240ce1, type: 3}
  m_Color: {r: 1, g: 1, b: 1, a: 1}
  m_FlipX: 0
  m_FlipY: 0
  m_DrawMode: 0
  m_Size: {x: 2.03, y: 2.48}
  m_AdaptiveModeThreshold: 0.5
  m_SpriteTileMode: 0
  m_WasSpriteAssigned: 1
  m_MaskInteraction: 0
  m_SpriteSortPoint: 0
--- !u!60 &6727568466276642566
PolygonCollider2D:
  m_ObjectHideFlags: 0
  m_CorrespondingSourceObject: {fileID: 0}
  m_PrefabInstance: {fileID: 0}
  m_PrefabAsset: {fileID: 0}
  m_GameObject: {fileID: 6727568466276642619}
  m_Enabled: 1
  m_Density: 1
  m_Material: {fileID: 0}
  m_IsTrigger: 1
  m_UsedByEffector: 0
  m_UsedByComposite: 0
  m_Offset: {x: 0, y: 0}
  m_SpriteTilingProperty:
    border: {x: 0, y: 0, z: 0, w: 0}
    pivot: {x: 0.5, y: 0.5}
    oldSize: {x: 1.68, y: 1.87}
    newSize: {x: 2.03, y: 2.48}
    adaptiveTilingThreshold: 0.5
    drawMode: 0
    adaptiveTiling: 0
  m_AutoTiling: 0
  m_Points:
    m_Paths:
    - - {x: 0.36499998, y: -1.24}
      - {x: 0.39499998, y: -1.22}
      - {x: 0.42499998, y: -0.84999996}
      - {x: 0.465, y: -0.78}
      - {x: 0.905, y: -0.53999996}
      - {x: 0.995, y: -0.45}
      - {x: 0.965, y: -0.29999998}
      - {x: 1.015, y: -0.26}
      - {x: 1.015, y: 0.19}
      - {x: 0.97499996, y: 0.26}
      - {x: 0.905, y: 0.25}
      - {x: 0.875, y: 0.22}
      - {x: 0.865, y: 0.19}
      - {x: 0.865, y: 0.14999999}
      - {x: 0.865, y: 0.16}
      - {x: 0.78499997, y: 0.37}
      - {x: 0.705, y: 0.45}
      - {x: 0.59499997, y: 0.47}
      - {x: 0.555, y: 0.45}
      - {x: 0.45499998, y: 0.95}
      - {x: 0.415, y: 1.09}
      - {x: 0.21499999, y: 1.24}
      - {x: 0.125, y: 1.24}
      - {x: 0.105, y: 1.13}
      - {x: 0.185, y: 1.0699999}
      - {x: 0.13499999, y: 0.93}
      - {x: 0.13499999, y: 1.06}
      - {x: 0.024999999, y: 1.14}
      - {x: -0.044999998, y: 1.14}
      - {x: -0.145, y: 1.06}
      - {x: -0.205, y: 1.0699999}
      - {x: -0.114999995, y: 1.13}
      - {x: -0.13499999, y: 1.24}
      - {x: -0.24499999, y: 1.24}
      - {x: -0.435, y: 1.09}
      - {x: -0.565, y: 0.45}
      - {x: -0.615, y: 0.45999998}
      - {x: -0.66499996, y: 0.45999998}
      - {x: -0.79499996, y: 0.37}
      - {x: -0.79499996, y: 0.32}
      - {x: -0.865, y: 0.24}
      - {x: -0.98499995, y: 0.26999998}
      - {x: -1.015, y: 0.19999999}
      - {x: -1.015, y: -0.28}
      - {x: -0.97499996, y: -0.48}
      - {x: -0.91499996, y: -0.53}
      - {x: -0.48499998, y: -0.78}
      - {x: -0.415, y: -0.85999995}
      - {x: -0.415, y: -1.11}
      - {x: -0.385, y: -1.1999999}
      - {x: -0.355, y: -1.24}
      - {x: -0.105, y: -1.24}
      - {x: -0.085, y: -1.23}
      - {x: -0.024999999, y: -1.12}
      - {x: 0.085, y: -1.24}
    - - {x: -0.435, y: -0.51}
      - {x: -0.435, y: -0.48999998}
      - {x: -0.36499998, y: -0.48999998}
      - {x: -0.405, y: -0.53}
      - {x: -0.39499998, y: -0.53999996}
      - {x: -0.39499998, y: -0.53}
    - - {x: 0.39499998, y: -0.53}
      - {x: 0.355, y: -0.48999998}
      - {x: 0.42499998, y: -0.48999998}
      - {x: 0.415, y: -0.52}
      - {x: 0.39499998, y: -0.53999996}
--- !u!50 &6727568466276642567
Rigidbody2D:
  serializedVersion: 4
  m_ObjectHideFlags: 0
  m_CorrespondingSourceObject: {fileID: 0}
  m_PrefabInstance: {fileID: 0}
  m_PrefabAsset: {fileID: 0}
  m_GameObject: {fileID: 6727568466276642619}
  m_BodyType: 0
  m_Simulated: 1
  m_UseFullKinematicContacts: 0
  m_UseAutoMass: 0
  m_Mass: 1
  m_LinearDrag: 0
  m_AngularDrag: 0.05
  m_GravityScale: 0
  m_Material: {fileID: 0}
  m_Interpolate: 0
  m_SleepingMode: 1
  m_CollisionDetection: 0
  m_Constraints: 4
--- !u!114 &7582039502164398789
MonoBehaviour:
  m_ObjectHideFlags: 0
  m_CorrespondingSourceObject: {fileID: 0}
  m_PrefabInstance: {fileID: 0}
  m_PrefabAsset: {fileID: 0}
  m_GameObject: {fileID: 6727568466276642619}
  m_Enabled: 1
  m_EditorHideFlags: 0
  m_Script: {fileID: 11500000, guid: 0ebca047723f14745be0a080001a39c8, type: 3}
  m_Name: 
  m_EditorClassIdentifier: 
  Bala_Enemiga_lv_2: {fileID: 4365426959218626001, guid: 05d7e6d303a4bc84d90d95b353144e03, type: 3}
